<?xml version="1.0" encoding="UTF-8"?>
<CustomTab xmlns="http://soap.sforce.com/2006/04/metadata">
    <description>Created by Lightning App Builder</description>
    <flexiPage>Arcadian_Sales_CRM</flexiPage>
    <label>Arcadian Sales CRM</label>
    <mobileReady>true</mobileReady>
    <motif>Custom3: Sun</motif>
</CustomTab>
